<?xml version="1.0" encoding="UTF-8"?>
<svg width="16px" height="17px" viewBox="0 0 16 17" version="1.1" xmlns="http://www.w3.org/2000/svg" xmlns:xlink="http://www.w3.org/1999/xlink">
    <!-- Generator: Sketch 51.1 (57501) - http://www.bohemiancoding.com/sketch -->
    <title>icon_country</title>
    <desc>Created with Sketch.</desc>
    <defs>
        <rect id="path-1" x="0" y="0" width="30" height="30"></rect>
    </defs>
    <g id="Android" stroke="none" stroke-width="1" fill="none" fill-rule="evenodd">
        <g id="Registration" transform="translate(-48.000000, -334.000000)">
            <g id="Group-3" transform="translate(30.000000, 316.666667)">
                <g id="icon_country" transform="translate(11.000000, 11.000000)">
                    <mask id="mask-2" fill="white">
                        <use xlink:href="#path-1"></use>
                    </mask>
                    <g id="Mask" fill-rule="nonzero"></g>
                    <path d="M15,7 C10.5816129,7 7,10.5816129 7,15 C7,19.4183871 10.5816129,23 15,23 C19.4183871,23 23,19.4183871 23,15 C23,10.5816129 19.4183871,7 15,7 Z M14.6341935,14.7493548 C14.5409677,14.9048387 14.3729032,15 14.1916129,15 L14.1816129,15 C14.0448387,15 13.9135484,15.0545161 13.8167742,15.1512903 L13.6341935,15.333871 C13.5335484,15.4345161 13.5335484,15.5980645 13.6341935,15.6987097 L13.8167742,15.8812903 C13.9135484,15.9780645 13.9680645,16.1093548 13.9680645,16.246129 L13.9680645,16.5483871 C13.9680645,16.8335484 13.7370968,17.0645161 13.4519355,17.0645161 L13.2548387,17.0645161 C13.0593548,17.0645161 12.8806452,16.9541935 12.7932258,16.7790323 L12.0635484,15.32 C11.9848387,15.1625806 11.7748387,15.1283871 11.6503226,15.2529032 L11.0222581,15.8806452 C10.9254839,15.9774194 10.7941935,16.0319355 10.6574194,16.0319355 L8.63903226,16.0319355 C8.58451613,15.6951613 8.5483871,15.3522581 8.5483871,15 C8.5483871,11.4425806 11.4425806,8.5483871 15,8.5483871 C15.693871,8.5483871 16.3612903,8.6616129 16.9880645,8.86516129 L15.37,10.1080645 C15.2051613,10.2180645 15.2206452,10.4648387 15.3977419,10.5535484 L15.7470968,10.7280645 C15.9219355,10.8154839 16.0322581,10.9941935 16.0322581,11.1896774 L16.0322581,13.7096774 C16.0322581,13.8522581 15.9167742,13.9677419 15.7741935,13.9677419 L15.6754839,13.9677419 C15.5777419,13.9677419 15.4883871,13.9125806 15.4448387,13.8251613 C15.3945161,13.7245161 15.2525806,13.7190323 15.1945161,13.8154839 L14.6341935,14.7493548 Z M20.1612903,18.3041935 C20.1612903,18.4409677 20.1067742,18.5722581 20.01,18.6690323 L19.7012903,18.9777419 C19.6045161,19.0745161 19.4732258,19.1290323 19.3364516,19.1290323 L18.8474194,19.1290323 C18.7106452,19.1290323 18.5793548,19.0745161 18.4825806,18.9777419 L18.0629032,18.5580645 C17.8484282,18.3435975 17.5371514,18.2573903 17.2429032,18.3309677 L16.5567742,18.5025806 C16.5158065,18.5129032 16.473871,18.5180645 16.4316129,18.5180645 L16.0980645,18.5180645 C15.9612903,18.5180645 15.83,18.4635484 15.7332258,18.3667742 L15.3490323,17.9825806 C15.3006721,17.9341266 15.2735229,17.8684579 15.2735484,17.8 L15.2735484,17.4709677 C15.2735484,17.3654839 15.3377419,17.2706452 15.4358065,17.2312903 L16.7048387,16.7235484 C16.7687097,16.6980645 16.8293548,16.6648387 16.8851613,16.6251613 L17.65,16.0803226 C17.6936966,16.0491965 17.7460283,16.0325045 17.7996774,16.0325806 L18.1896774,16.0325806 C18.293871,16.0325806 18.3880645,16.0951613 18.4280645,16.1916129 L18.6006452,16.606129 C18.6206849,16.6541681 18.6676261,16.6854622 18.7196774,16.6854839 L18.8422581,16.6854839 C18.8996774,16.6854839 18.9503226,16.6474194 18.966129,16.5925806 L19.1016129,16.1258065 C19.1177419,16.0706452 19.1680645,16.0329032 19.2254839,16.0329032 L19.4209677,16.0329032 C19.4922581,16.0329032 19.55,16.0906452 19.55,16.1619355 L19.55,16.5790323 C19.55,16.6474194 19.5770968,16.7132258 19.6254839,16.7616129 L20.0096774,17.1458065 C20.1064516,17.2425806 20.1609677,17.373871 20.1609677,17.5106452 L20.1609677,18.3041935 L20.1612903,18.3041935 Z" id="Shape" fill="#FFFFFF" fill-rule="nonzero" mask="url(#mask-2)"></path>
                </g>
            </g>
        </g>
    </g>
</svg>